  1.2100000e+002
 -6.2668353e+000
 -6.2146117e+000
 -6.1623881e+000
 -6.1101645e+000
 -6.0579408e+000
 -6.0057172e+000
 -5.9534936e+000
 -5.9012700e+000
 -5.8490463e+000
 -5.7968227e+000
 -5.7445991e+000
 -5.6923754e+000
 -5.6401518e+000
 -5.5879282e+000
 -5.5357046e+000
 -5.4834809e+000
 -5.4312573e+000
 -5.3790337e+000
 -5.3268100e+000
 -5.2745864e+000
 -5.2223628e+000
 -5.1701392e+000
 -5.1179155e+000
 -5.0656919e+000
 -5.0134683e+000
 -4.9612446e+000
 -4.9090210e+000
 -4.8567974e+000
 -4.8045738e+000
 -4.7523501e+000
 -4.7001265e+000
 -4.6479029e+000
 -4.5956793e+000
 -4.5434556e+000
 -4.4912320e+000
 -4.4390084e+000
 -4.3867847e+000
 -4.3345611e+000
 -4.2823375e+000
 -4.2301139e+000
 -4.1778902e+000
 -4.1256666e+000
 -4.0734430e+000
 -4.0212193e+000
 -3.9689957e+000
 -3.9167721e+000
 -3.8645485e+000
 -3.8123248e+000
 -3.7601012e+000
 -3.7078776e+000
 -3.6556540e+000
 -3.6034303e+000
 -3.5512067e+000
 -3.4989831e+000
 -3.4467594e+000
 -3.3945358e+000
 -3.3423122e+000
 -3.2900886e+000
 -3.2378649e+000
 -3.1856413e+000
 -3.1334177e+000
 -3.0811940e+000
 -3.0289704e+000
 -2.9767468e+000
 -2.9245232e+000
 -2.8722995e+000
 -2.8200759e+000
 -2.7678523e+000
 -2.7156286e+000
 -2.6634050e+000
 -2.6111814e+000
 -2.5589578e+000
 -2.5067341e+000
 -2.4545105e+000
 -2.4022869e+000
 -2.3500633e+000
 -2.2978396e+000
 -2.2456160e+000
 -2.1933924e+000
 -2.1411687e+000
 -2.0889451e+000
 -2.0367215e+000
 -1.9844979e+000
 -1.9322742e+000
 -1.8800506e+000
 -1.8278270e+000
 -1.7756033e+000
 -1.7233797e+000
 -1.6711561e+000
 -1.6189325e+000
 -1.5667088e+000
 -1.5144852e+000
 -1.4622616e+000
 -1.4100380e+000
 -1.3578143e+000
 -1.3055907e+000
 -1.2533671e+000
 -1.2011434e+000
 -1.1489198e+000
 -1.0966962e+000
 -1.0444726e+000
 -9.9224893e-001
 -9.4002530e-001
 -8.8780167e-001
 -8.3557805e-001
 -7.8335442e-001
 -7.3113079e-001
 -6.7890716e-001
 -6.2668353e-001
 -5.7445991e-001
 -5.2223628e-001
 -4.7001265e-001
 -4.1778902e-001
 -3.6556540e-001
 -3.1334177e-001
 -2.6111814e-001
 -2.0889451e-001
 -1.5667088e-001
 -1.0444726e-001
 -5.2223628e-002
  0.0000000e+000
  9.9057934e-005
  1.1521907e-004
  1.3138021e-004
  1.4896145e-004
  1.7173193e-004
  1.9450240e-004
  2.2149829e-004
  2.5310272e-004
  2.8470714e-004
  3.2549821e-004
  3.6873058e-004
  4.1422139e-004
  4.7253372e-004
  5.3084606e-004
  5.9989878e-004
  6.7748812e-004
  7.5536764e-004
  8.5725702e-004
  9.5914640e-004
  1.0765629e-003
  1.2086715e-003
  1.3430978e-003
  1.5122963e-003
  1.6814947e-003
  1.8802515e-003
  2.0943931e-003
  2.3246238e-003
  2.5925549e-003
  2.8604859e-003
  3.1911665e-003
  3.5227057e-003
  3.9077423e-003
  4.3136273e-003
  4.7623050e-003
  5.2541084e-003
  5.7775039e-003
  6.3675127e-003
  6.9786459e-003
  7.6797115e-003
  8.3936242e-003
  9.2189842e-003
  1.0052728e-002
  1.1015800e-002
  1.1988318e-002
  1.3102479e-002
  1.4234380e-002
  1.5512731e-002
  1.6825944e-002
  1.8281071e-002
  1.9798395e-002
  2.1442132e-002
  2.3186695e-002
  2.5029897e-002
  2.7024535e-002
  2.9076865e-002
  3.1343458e-002
  3.3678065e-002
  3.6171982e-002
  3.8811581e-002
  4.1540244e-002
  4.4496035e-002
  4.7558016e-002
  5.0747955e-002
  5.4154239e-002
  5.7679573e-002
  6.1335172e-002
  6.5216945e-002
  6.9231155e-002
  7.3385254e-002
  7.7706789e-002
  8.2214499e-002
  8.6864604e-002
  9.1660115e-002
  9.6602405e-002
  1.0169080e-001
  1.0694099e-001
  1.1232279e-001
  1.1783082e-001
  1.2345869e-001
  1.2919841e-001
  1.3504044e-001
  1.4097400e-001
  1.4699175e-001
  1.5307987e-001
  1.5921864e-001
  1.6539403e-001
  1.7159409e-001
  1.7779798e-001
  1.8398681e-001
  1.9013884e-001
  1.9623386e-001
  2.0224143e-001
  2.0813905e-001
  2.1389282e-001
  2.1946346e-001
  2.2480695e-001
  2.2986192e-001
  2.3452674e-001
  2.3837820e-001
  2.4003384e-001
  2.3769504e-001
  2.3041882e-001
  2.1846595e-001
  2.0282833e-001
  1.8481544e-001
  1.6557469e-001
  1.4607742e-001
  1.2710038e-001
  1.0903033e-001
  9.2233780e-002
  7.6835450e-002
  6.2908783e-002
  5.0461591e-002
  3.9464659e-002
  2.9902993e-002
  2.1658972e-002
  1.4720662e-002
  9.0540318e-003
  4.6158997e-003
  1.4726578e-003
  0.0000000e+000
